{
  "page": 1,
  "total_results": 23,
  "total_pages": 2,
  "results": [
    {
      "original_name": "Black Summer",
      "genre_ids": [
        18,
        10759
      ],
      "name": "Black Summer",
      "popularity": 165.958,
      "origin_country": [
        "US"
      ],
      "vote_count": 33,
      "first_air_date": "2019-04-11",
      "backdrop_path": "/vZcYeHIm3xuKW6iFTTBDg57ZNk0.jpg",
      "original_language": "en",
      "id": 88052,
      "vote_average": 5.6,
      "overview": "In the dark, early days of a zombie apocalypse, complete strangers band together to find the strength they need to survive and get back to loved ones.",
      "poster_path": "/tnRiTrHCL3k5F0QOtQhkQd3AAR5.jpg"
    },
    {
      "original_name": "Chambers",
      "genre_ids": [
        18
      ],
      "name": "Chambers",
      "popularity": 36.761,
      "origin_country": [],
      "vote_count": 7,
      "first_air_date": "2019-04-26",
      "backdrop_path": "/k3TmxbcAy5gV3l8GG4bI4j07udy.jpg",
      "original_language": "en",
      "id": 80055,
      "vote_average": 5.6,
      "overview": "Consumed by the mystery surrounding the donor heart that saved her life, a young patient starts taking on sinister characteristics of the deceased.",
      "poster_path": "/h6jgj9zwwdyxIEsmWwkQHHdfEJ6.jpg"
    },
    {
      "original_name": "Bonding",
      "genre_ids": [
        35,
        18
      ],
      "name": "Bonding",
      "popularity": 31.64,
      "origin_country": [
        "US"
      ],
      "vote_count": 8,
      "first_air_date": "2019-04-24",
      "backdrop_path": "/mAM0AB2gh83VAhkXfVq64sZJEd7.jpg",
      "original_language": "en",
      "id": 88512,
      "vote_average": 7.3,
      "overview": "A New York City grad student moonlighting as a dominatrix enlists her gay BFF from high school to be her assistant.",
      "poster_path": "/593XGTuGfkVuNKgJFD8qppW0w6e.jpg"
    },
    {
      "original_name": "Quicksand",
      "genre_ids": [
        80,
        18
      ],
      "name": "Quicksand",
      "popularity": 14.742,
      "origin_country": [
        "SE"
      ],
      "vote_count": 10,
      "first_air_date": "2019-04-05",
      "backdrop_path": "/hommfvABPU02k99lihPyxjDjBNK.jpg",
      "original_language": "sv",
      "id": 86621,
      "vote_average": 7,
      "overview": "After a tragedy at a school sends shock waves through a wealthy Stockholm suburb, a seemingly well-adjusted teen finds herself on trial for murder.",
      "poster_path": "/dyktLijhV8QY65cAqGIir2PjOc5.jpg"
    },
    {
      "original_name": "Our Planet",
      "genre_ids": [
        99
      ],
      "name": "Our Planet",
      "popularity": 12.291,
      "origin_country": [
        "GB"
      ],
      "vote_count": 14,
      "first_air_date": "2019-04-05",
      "backdrop_path": "/bPySXNfMaBhjwSlCaqQxIcDUqOm.jpg",
      "original_language": "en",
      "id": 83880,
      "vote_average": 8.3,
      "overview": "Experience our planet's natural beauty and examine how climate change impacts all living creatures in this ambitious documentary of spectacular scope.",
      "poster_path": "/wRSnArnQBmeUYb5GWDU595bGsBr.jpg"
    },
    {
      "original_name": "No Good Nick",
      "genre_ids": [
        35
      ],
      "name": "No Good Nick",
      "popularity": 11.475,
      "origin_country": [
        "US"
      ],
      "vote_count": 5,
      "first_air_date": "2019-04-15",
      "backdrop_path": "/rXxMpqlms6i1wbGwACX2D6Nv5XA.jpg",
      "original_language": "en",
      "id": 82578,
      "vote_average": 6.2,
      "overview": "A family finds their lives turned upside down when a young, street-smart grifter shows up on their doorstep, claiming to be a distant relative.",
      "poster_path": "/8Dx6nS5S5J3yXSbzGTgs0s4RBNv.jpg"
    },
    {
      "original_name": "Ultraman",
      "genre_ids": [
        16,
        10759,
        10765
      ],
      "name": "Ultraman",
      "popularity": 10.752,
      "origin_country": [
        "JP"
      ],
      "vote_count": 8,
      "first_air_date": "2019-04-01",
      "backdrop_path": "/vgoeMt2R5DdwK7DCbJJUS2Vkah7.jpg",
      "original_language": "ja",
      "id": 80795,
      "vote_average": 7.4,
      "overview": "Decades ago, a hero from the stars left this world in peace. Now, the son of Ultraman must rise to protect the Earth from a new alien threat.",
      "poster_path": "/yt3jAozd4EmWsUyhKAY3viStAO6.jpg"
    },
    {
      "original_name": "Special",
      "genre_ids": [
        35
      ],
      "name": "Special",
      "popularity": 6.876,
      "origin_country": [
        "US"
      ],
      "vote_count": 2,
      "first_air_date": "2019-04-12",
      "backdrop_path": "/lQrZ5x948FVOLsaYeElkKZHsbIG.jpg",
      "original_language": "en",
      "id": 87194,
      "vote_average": 7.5,
      "overview": "A gay man with mild cerebral palsy decides to rewrite his identity as an accident victim and finally go after the life he wants.",
      "poster_path": "/S48ANeASdXjmZfJniAICucluFE.jpg"
    },
    {
      "original_name": "I Think You Should Leave with Tim Robinson",
      "genre_ids": [
        35
      ],
      "name": "I Think You Should Leave with Tim Robinson",
      "popularity": 6.317,
      "origin_country": [
        "US"
      ],
      "vote_count": 1,
      "first_air_date": "2019-04-23",
      "backdrop_path": "/jNlcsQjgNvpOnUYeJYSOy60PK8o.jpg",
      "original_language": "en",
      "id": 88728,
      "vote_average": 7,
      "overview": "There is no such thing as an ordinary interaction in this offbeat sketch comedy series that features a deep roster of guest stars.",
      "poster_path": "/m4iNYM0ZaaH10Qzebd9dwSa6Zy6.jpg"
    },
    {
      "original_name": "Lunatics",
      "genre_ids": [
        99
      ],
      "name": "Lunatics",
      "popularity": 5.949,
      "origin_country": [
        "US"
      ],
      "vote_count": 1,
      "first_air_date": "2019-04-19",
      "backdrop_path": "/cdE6tt6aAAi3RvIZluxSLqgqQ3x.jpg",
      "original_language": "en",
      "id": 88366,
      "vote_average": 7,
      "overview": "This mockumentary series follows the peculiar lives of six eccentric -- and sometimes obscene -- misfits who march to their own beat.",
      "poster_path": "/b1XdwJT0oB13MnJWaoailWuvB3Q.jpg"
    },
    {
      "original_name": "Street Food",
      "genre_ids": [
        99
      ],
      "name": "Street Food",
      "popularity": 4.986,
      "origin_country": [
        "US"
      ],
      "vote_count": 2,
      "first_air_date": "2019-04-26",
      "backdrop_path": "/3lrDgMdBhQhxBL48gGRZwSZMXjV.jpg",
      "original_language": "en",
      "id": 87832,
      "vote_average": 8,
      "overview": "Embark on a global cultural journey into street food and discover the stories of the people who create the flavorful dishes.",
      "poster_path": "/1lye2ah4QAiWNXRqF9RkUoWUfaV.jpg"
    },
    {
      "original_name": "Yankee",
      "genre_ids": [
        80,
        18
      ],
      "name": "Yankee",
      "popularity": 4.954,
      "origin_country": [],
      "vote_count": 0,
      "first_air_date": "2019-04-26",
      "backdrop_path": "/rWJ1bqSSxBv0FooTlS2UOScDgkd.jpg",
      "original_language": "es",
      "id": 88775,
      "vote_average": 0,
      "overview": "On the run from the police, an Arizona man crosses into Mexico and gets deeply involved in drug trafficking, with the help of modern technology.",
      "poster_path": null
    },
    {
      "original_name": "Trailer Park Boys: The Animated Series",
      "id": 88071,
      "name": "Trailer Park Boys: The Animated Series",
      "popularity": 3.955,
      "vote_count": 4,
      "vote_average": 9.1,
      "first_air_date": "2019-03-31",
      "poster_path": "/ncJAzlVu44RN9ZWWsxI5SCFuOP3.jpg",
      "genre_ids": [
        16,
        35
      ],
      "original_language": "en",
      "backdrop_path": "/gxHZ4JI2kvNH6FvjaRn81Ljw5FJ.jpg",
      "overview": "Nova Scotia’s favorite miscreants have always been super sketchy. Now, carrying on from the Season 12 finale, the boys have become complete cartoons.",
      "origin_country": [
        "CA"
      ]
    },
    {
      "original_name": "Huge en France",
      "genre_ids": [
        35
      ],
      "name": "Huge in France",
      "popularity": 3.734,
      "origin_country": [
        "FR"
      ],
      "vote_count": 7,
      "first_air_date": "2019-04-12",
      "backdrop_path": "/inz5QMc9fD5reRr3kMJBtqPZaQ5.jpg",
      "original_language": "fr",
      "id": 87799,
      "vote_average": 5.6,
      "overview": "Famous comedian Gad Elmaleh moves to LA to reconnect with his son and must learn to live without the celebrity perks he's accustomed to in France.",
      "poster_path": "/vj2tyu2SY0pIzToqWpiXbht4NBE.jpg"
    },
    {
      "original_name": "リラックマとカオルさん",
      "genre_ids": [
        16
      ],
      "name": "Rilakkuma and Kaoru",
      "popularity": 3.452,
      "origin_country": [
        "JP"
      ],
      "vote_count": 4,
      "first_air_date": "2019-04-19",
      "backdrop_path": "/tHzXiocoxQbeviZs6xlHsL2u0WB.jpg",
      "original_language": "ja",
      "id": 84655,
      "vote_average": 4.8,
      "overview": "Kaoru's unexpected new roommate is Rilakkuma, a bear with a zipper on its back that spends each day just lazing around -- but is impossible to hate.",
      "poster_path": "/lzohWj8xtowSXJVN9PsJjZAf1B2.jpg"
    },
    {
      "original_name": "첫사랑은 처음이라서",
      "genre_ids": [
        18
      ],
      "name": "My First First Love",
      "popularity": 3.105,
      "origin_country": [
        "KR"
      ],
      "vote_count": 2,
      "first_air_date": "2019-04-18",
      "backdrop_path": "/9mnoY1KaKcZqCiU5ihlwr4ETX11.jpg",
      "original_language": "ko",
      "id": 87527,
      "vote_average": 7.5,
      "overview": "Due to various personal reasons, a group of Yun Tae-o’s friends move into his house, where they experience love, friendship, and everything in between.",
      "poster_path": "/oTE13yLKzpNfGxdUcyEV6Am4WP2.jpg"
    },
    {
      "original_name": "ャロル&チューズデイ",
      "genre_ids": [
        16,
        18,
        10765
      ],
      "name": "Carole & Tuesday",
      "popularity": 3.057,
      "origin_country": [
        "JP"
      ],
      "vote_count": 1,
      "first_air_date": "2019-04-11",
      "backdrop_path": "/fVDx8hxEq80HLQdoXrlmq2TiKDm.jpg",
      "original_language": "ja",
      "id": 83962,
      "vote_average": 10,
      "overview": "Two girls, from different backgrounds but sharing a love for music, meet and change history with their united musical talent.",
      "poster_path": "/a2eT3H3dFuGQJ4cPZ5scuN5ZFTu.jpg"
    },
    {
      "original_name": "Mighty Little Bheem",
      "genre_ids": [
        16,
        10762
      ],
      "name": "Mighty Little Bheem",
      "popularity": 2.952,
      "origin_country": [],
      "vote_count": 2,
      "first_air_date": "2019-04-12",
      "backdrop_path": "/raovllCJrTW6JYppqh7AbT3257S.jpg",
      "original_language": "en",
      "id": 88393,
      "vote_average": 9,
      "overview": "An innocent toddler’s boundless curiosity -- and extraordinary might -- lead to mischief and adventure in his small Indian town.",
      "poster_path": "/k8tJtRdcl16ecIFAEJN11KePh6l.jpg"
    },
    {
      "original_name": "페르소나",
      "id": 87811,
      "name": "Persona",
      "popularity": 2.489,
      "vote_count": 2,
      "vote_average": 8,
      "first_air_date": "2019-04-11",
      "poster_path": "/iS7nWpl8XgidTiQzUpo5RNx4mEr.jpg",
      "genre_ids": [
        18
      ],
      "original_language": "ko",
      "backdrop_path": "/5DA9qeLX1dCVbBckIb5of4M5HNJ.jpg",
      "overview": "An exploration of different personas in an eclectic collection of four works by critically acclaimed Korean directors.",
      "origin_country": [
        "KR"
      ]
    },
    {
      "original_name": "You vs. Wild",
      "genre_ids": [
        10759,
        10764
      ],
      "name": "You vs. Wild",
      "popularity": 2.306,
      "origin_country": [
        "US"
      ],
      "vote_count": 4,
      "first_air_date": "2019-04-10",
      "backdrop_path": "/9t1mNUmpDEXt8pZ92UmU1OsJnP9.jpg",
      "original_language": "en",
      "id": 87712,
      "vote_average": 7,
      "overview": "You vs. Wild is an interactive live-action project from Netflix.",
      "poster_path": "/4DyeOWOXzWKaOJgNccu3iQnMBST.jpg"
    }
  ]
}